<svg width="24" height="24" viewBox="0 0 24 24" fill="none" xmlns="http://www.w3.org/2000/svg">
<path fill-rule="evenodd" clip-rule="evenodd" d="M16.8839 4.11612C16.3957 3.62796 15.6043 3.62796 15.1161 4.11612C14.873 4.35917 14.751 4.67741 14.75 4.99597L14.75 5L14.75 5.00403C14.751 5.32259 14.873 5.64083 15.1161 5.88389C15.6043 6.37204 16.3957 6.37204 16.8839 5.88389C17.372 5.39573 17.372 4.60427 16.8839 4.11612ZM13.3537 4.25H3C2.58579 4.25 2.25 4.58578 2.25 5C2.25 5.41421 2.58579 5.75 3 5.75H13.3537C13.4773 6.18744 13.7112 6.60028 14.0554 6.94455C15.1294 8.01849 16.8706 8.01849 17.9445 6.94455C18.2888 6.60028 18.5227 6.18744 18.6463 5.75H21C21.4142 5.75 21.75 5.41421 21.75 5C21.75 4.58578 21.4142 4.25 21 4.25H18.6463C18.5227 3.81256 18.2888 3.39972 17.9445 3.05546C16.8706 1.98151 15.1294 1.98151 14.0554 3.05546C13.7112 3.39972 13.4773 3.81256 13.3537 4.25ZM8.88388 11.1161C8.39572 10.628 7.60427 10.628 7.11611 11.1161C6.87142 11.3608 6.74938 11.6817 6.75 12.0024C6.75061 12.3215 6.87265 12.6404 7.11611 12.8839C7.60427 13.3721 8.39572 13.3721 8.88388 12.8839C9.37204 12.3957 9.37204 11.6043 8.88388 11.1161ZM5.35373 11.25H3C2.58579 11.25 2.25 11.5858 2.25 12C2.25 12.4142 2.58579 12.75 3 12.75H5.35372C5.47727 13.1874 5.71118 13.6003 6.05545 13.9446C7.12939 15.0185 8.8706 15.0185 9.94454 13.9446C10.2888 13.6003 10.5227 13.1874 10.6463 12.75H21C21.4142 12.75 21.75 12.4142 21.75 12C21.75 11.5858 21.4142 11.25 21 11.25H10.6463C10.5227 10.8126 10.2888 10.3997 9.94454 10.0555C8.8706 8.98152 7.12939 8.98152 6.05545 10.0555C5.71119 10.3997 5.47728 10.8126 5.35373 11.25ZM16.8839 18.1161C16.3957 17.628 15.6043 17.628 15.1161 18.1161C14.873 18.3592 14.751 18.6774 14.75 18.996L14.75 19L14.75 19.004C14.751 19.3226 14.873 19.6408 15.1161 19.8839C15.6043 20.3721 16.3957 20.3721 16.8839 19.8839C17.372 19.3957 17.372 18.6043 16.8839 18.1161ZM13.3537 18.25H3C2.58579 18.25 2.25 18.5858 2.25 19C2.25 19.4142 2.58579 19.75 3 19.75H13.3537C13.4773 20.1874 13.7112 20.6003 14.0554 20.9446C15.1294 22.0185 16.8706 22.0185 17.9445 20.9446C18.2888 20.6003 18.5227 20.1874 18.6463 19.75H21C21.4142 19.75 21.75 19.4142 21.75 19C21.75 18.5858 21.4142 18.25 21 18.25H18.6462C18.5227 17.8126 18.2888 17.3997 17.9445 17.0555C16.8706 15.9815 15.1294 15.9815 14.0554 17.0555C13.7112 17.3997 13.4773 17.8126 13.3537 18.25Z" fill="#132133"/>
</svg>
