<svg width="24" height="24" viewBox="0 0 24 24" fill="none" xmlns="http://www.w3.org/2000/svg">
<path fill-rule="evenodd" clip-rule="evenodd" d="M17.51 4.23647C17.4134 4.13965 17.2558 4.13867 17.1573 4.23715L14.9377 6.45695L17.542 9.06129L19.7623 6.84082C19.8592 6.74424 19.8602 6.58664 19.7617 6.48815L17.51 4.23647ZM16.4814 10.122L13.8771 7.51765L3.82335 17.5721L3.82191 17.5736C3.77678 17.6185 3.75 17.6815 3.75 17.7488V20.2498H6.251C6.3183 20.2498 6.38136 20.223 6.42626 20.1779L6.42765 20.1765L16.4814 10.122ZM18.5713 3.17649C17.8879 2.492 16.78 2.4932 16.0967 3.17649L16.0967 3.17651L2.76409 16.5101C2.76382 16.5103 2.76356 16.5106 2.7633 16.5109C2.43293 16.8399 2.25 17.2865 2.25 17.7488V20.9998C2.25 21.414 2.58579 21.7498 3 21.7498H6.251C6.71341 21.7498 7.16008 21.5668 7.48912 21.2364C7.48933 21.2361 7.48954 21.2359 7.48974 21.2357L20.8216 7.90283C21.5068 7.21941 21.5058 6.11101 20.8223 5.42749L18.572 3.17717C18.5718 3.17697 18.5716 3.17676 18.5714 3.17656C18.5714 3.17654 18.5714 3.17652 18.5713 3.17649Z" fill="#132133"/>
</svg>
