<svg width="16" height="16" viewBox="0 0 16 16" fill="none" xmlns="http://www.w3.org/2000/svg">
<path fill-rule="evenodd" clip-rule="evenodd" d="M9.41171 10.0632C7.65337 11.4447 5.10003 11.3251 3.47935 9.7044C1.72954 7.95459 1.72954 5.11759 3.47935 3.36778C5.22916 1.61797 8.06616 1.61797 9.81597 3.36778C11.4559 5.00767 11.5589 7.60246 10.125 9.36232L13.6895 12.9756C13.8835 13.1722 13.8813 13.4888 13.6847 13.6827C13.4882 13.8766 13.1716 13.8745 12.9776 13.6779L9.41171 10.0632ZM4.18646 4.07488C5.54574 2.7156 7.74958 2.7156 9.10886 4.07488C10.4612 5.42721 10.4681 7.61547 9.12963 8.97635C9.11327 8.98891 9.09751 9.00261 9.08245 9.01747C9.06793 9.03179 9.05447 9.04678 9.04208 9.06234C7.67832 10.3562 5.5237 10.3345 4.18646 8.99729C2.82717 7.63801 2.82717 5.43417 4.18646 4.07488Z" fill="#313131"/>
</svg>
